…
```r
seed_list %>% distinct(words) #51 distinct words
```

```
## # A tibble: 51 x 1
##    words   
##    <chr>   
##  1 afraid  
##  2 alone   
##  3 assault 
##  4 avoid   
##  5 burglary
##  6 CCTV    
##  7 coppers 
##  8 whore   
##  9 crime   
## 10 criminal
## # ... with 41 more rows
```
…
```r
lexicon_filtered
```

```
## # A tibble: 3,096 x 9
##       id query_word word         score tag1  tag2  tag3  tag4  remove
##    <int> <chr>      <chr>        <int> <chr> <chr> <chr> <chr>  <int>
##  1     1 afraid     scared       50038 syn   adj   <NA>  <NA>       0
##  2     1 afraid     fearful      47652 syn   adj   <NA>  <NA>       0
##  3     1 afraid     frightened   45532 syn   adj   <NA>  <NA>       0
##  4     1 afraid     terrified    44729 syn   adj   <NA>  <NA>       0
##  5     1 afraid     petrified    42958 syn   adj   <NA>  <NA>       0
##  6     1 afraid     intimidated  42315 syn   adj   <NA>  <NA>       0
##  7     1 afraid     apprehensive 41740 syn   adj   <NA>  <NA>       0
##  8     1 afraid     concerned    40893 syn   adj   <NA>  <NA>       0
##  9     1 afraid     alarmed      39542 syn   adj   <NA>  <NA>       0
## 10     1 afraid     cowed        38611 syn   adj   <NA>  <NA>       0
## # ... with 3,086 more rows
```
…
```r
lexicon_filtered_02
```

```
## # A tibble: 2,538 x 9
##       id query_word word           score tag1  tag2  tag3  tag4  remove
##    <int> <chr>      <chr>          <int> <chr> <chr> <chr> <chr>  <int>
##  1     1 assault    attack         93835 syn   n     <NA>  <NA>       0
##  2     1 assault    sexual assault 93573 syn   n     <NA>  <NA>       0
##  3     1 assault    rape           92281 syn   n     <NA>  <NA>       0
##  4     1 assault    battery        85324 syn   n     <NA>  <NA>       0
##  5     1 assault    violation      85044 syn   n     <NA>  <NA>       0
##  6     1 assault    offensive      84266 syn   n     <NA>  <NA>       0
##  7     1 assault    ravishment     80402 syn   n     <NA>  <NA>       0
##  8     1 assault    assail         79614 syn   v     <NA>  <NA>       0
##  9     1 assault    round          79435 syn   n     <NA>  <NA>       0
## 10     1 assault    snipe          79399 syn   n     <NA>  <NA>       0
## # ... with 2,528 more rows
```
…
As words in English can take many forms, suffixes and prefixes, I'll add lemmas and stems of words in separate columns. 


```r
lexicon_filtered_02 <- lexicon_filtered_02 %>% 
    mutate(lemmas=textstem::lemmatize_strings(word)) %>% 
    mutate(stems= textstem::stem_strings(word)) %>% 
    select(everything(),-remove, remove)

lexicon_filtered_02
```

```
## # A tibble: 2,538 x 11
##       id query_word word  score tag1  tag2  tag3  tag4  lemmas ste… remove
##    <int> <chr>      <chr> <int> <chr> <chr> <chr> <chr> <chr>  <ch>  <int>
##  1     1 assault    atta… 93835 syn   n     <NA>  <NA>  attack att…      0
##  2     1 assault    sexu… 93573 syn   n     <NA>  <NA>  sexua… sex…      0
##  3     1 assault    rape  92281 syn   n     <NA>  <NA>  rape   rape      0
##  4     1 assault    batt… 85324 syn   n     <NA>  <NA>  batte… bat…      0
##  5     1 assault    viol… 85044 syn   n     <NA>  <NA>  viola… vio…      0
##  6     1 assault    offe… 84266 syn   n     <NA>  <NA>  offen… off…      0
##  7     1 assault    ravi… 80402 syn   n     <NA>  <NA>  ravis… rav…      0
##  8     1 assault    assa… 79614 syn   v     <NA>  <NA>  assail ass…      0
##  9     1 assault    round 79435 syn   n     <NA>  <NA>  round  rou…      0
## 10     1 assault    snipe 79399 syn   n     <NA>  <NA>  snipe  sni…      0
## # ... with 2,528 more rows
```
…
