…
```
## Searching for tweets...
```

```
## Finished collecting tweets!
```

```r
rate_limit() %>% 
    arrange(reset)
```

```
## # A tibble: 140 x 7
##    query    limit remaining reset  reset_at            timestamp          
##    <chr>    <int>     <int> <time> <dttm>              <dttm>             
##  1 search/…   180        60 13.91… 2018-08-01 20:31:54 2018-08-01 20:18:00
##  2 lists/l…    15        15 15.01… 2018-08-01 20:33:00 2018-08-01 20:18:00
##  3 lists/m…    75        75 15.01… 2018-08-01 20:33:00 2018-08-01 20:18:00
##  4 lists/s…    15        15 15.01… 2018-08-01 20:33:00 2018-08-01 20:18:00
##  5 lists/m…   900       900 15.01… 2018-08-01 20:33:00 2018-08-01 20:18:00
##  6 lists/s…    15        15 15.01… 2018-08-01 20:33:00 2018-08-01 20:18:00
##  7 lists/s…    75        75 15.01… 2018-08-01 20:33:00 2018-08-01 20:18:00
##  8 lists/o…    15        15 15.01… 2018-08-01 20:33:00 2018-08-01 20:18:00
##  9 lists/s…   180       180 15.01… 2018-08-01 20:33:00 2018-08-01 20:18:00
## 10 lists/m…    15        15 15.01… 2018-08-01 20:33:00 2018-08-01 20:18:00
## # ... with 130 more rows, and 1 more variable: app <chr>
```
…
